{
  "project_info": {
    "project_number": "352361035555",
    "firebase_url": "https://rnbase.firebaseio.com",
    "project_id": "rnbase",
    "storage_bucket": "rnbase.appspot.com"
  },
  "client": [
    {
      "client_info": {
        "mobilesdk_app_id": "1:352361035555:android:d49a147994538384407e96",
        "android_client_info": {
          "package_name": "com.reactnativebase"
        }
      },
      "oauth_client": [
        {
          "client_id": "352361035555-kddau3g0nk7cev0jht2svtmgo6ad8ja8.apps.googleusercontent.com",
          "client_type": 1,
          "android_info": {
            "package_name": "com.reactnativebase",
            "certificate_hash": "5e8f16062ea3cd2c4a0d547876baa6f38cabf625"
          }
        },
        {
          "client_id": "352361035555-jq0e0ln7his5q2lu7tadmehak9e3g2kr.apps.googleusercontent.com",
          "client_type": 3
        }
      ],
      "api_key": [
        {
          "current_key": "AIzaSyBHcI1jVTXh86FGC-iU2YsZUcq6fmjsXFA"
        }
      ],
      "services": {
        "appinvite_service": {
          "other_platform_oauth_client": [
            {
              "client_id": "352361035555-r61ehnhuc11cvn6ta3105b88s6voibgv.apps.googleusercontent.com",
              "client_type": 3
            },
            {
              "client_id": "352361035555-go3l7bq7aiblchbq42k5rkihpj0nc4n7.apps.googleusercontent.com",
              "client_type": 2,
              "ios_info": {
                "bundle_id": "com.vinstudio.inlove"
              }
            }
          ]
        }
      }
    },
    {
      "client_info": {
        "mobilesdk_app_id": "1:352361035555:android:1081758b9a3c0cf3",
        "android_client_info": {
          "package_name": "com.vinsofts.rnbase"
        }
      },
      "oauth_client": [
        {
          "client_id": "352361035555-iot6d0pun2ann4ratpu12e7031mov3b1.apps.googleusercontent.com",
          "client_type": 1,
          "android_info": {
            "package_name": "com.vinsofts.rnbase",
            "certificate_hash": "32f06d4272f13ab1b8ffc63742f364a024229a7b"
          }
        },
        {
          "client_id": "352361035555-jq0e0ln7his5q2lu7tadmehak9e3g2kr.apps.googleusercontent.com",
          "client_type": 3
        }
      ],
      "api_key": [
        {
          "current_key": "AIzaSyBHcI1jVTXh86FGC-iU2YsZUcq6fmjsXFA"
        }
      ],
      "services": {
        "appinvite_service": {
          "other_platform_oauth_client": [
            {
              "client_id": "352361035555-r61ehnhuc11cvn6ta3105b88s6voibgv.apps.googleusercontent.com",
              "client_type": 3
            },
            {
              "client_id": "352361035555-go3l7bq7aiblchbq42k5rkihpj0nc4n7.apps.googleusercontent.com",
              "client_type": 2,
              "ios_info": {
                "bundle_id": "com.vinstudio.inlove"
              }
            }
          ]
        }
      }
    },
    {
      "client_info": {
        "mobilesdk_app_id": "1:352361035555:android:29100acc4824ef5d407e96",
        "android_client_info": {
          "package_name": "com.vinstudio.lovecounter"
        }
      },
      "oauth_client": [
        {
          "client_id": "352361035555-jq0e0ln7his5q2lu7tadmehak9e3g2kr.apps.googleusercontent.com",
          "client_type": 3
        }
      ],
      "api_key": [
        {
          "current_key": "AIzaSyBHcI1jVTXh86FGC-iU2YsZUcq6fmjsXFA"
        }
      ],
      "services": {
        "appinvite_service": {
          "other_platform_oauth_client": [
            {
              "client_id": "352361035555-r61ehnhuc11cvn6ta3105b88s6voibgv.apps.googleusercontent.com",
              "client_type": 3
            },
            {
              "client_id": "352361035555-go3l7bq7aiblchbq42k5rkihpj0nc4n7.apps.googleusercontent.com",
              "client_type": 2,
              "ios_info": {
                "bundle_id": "com.vinstudio.inlove"
              }
            }
          ]
        }
      }
    },
    {
      "client_info": {
        "mobilesdk_app_id": "1:352361035555:android:62a477635dad1a31407e96",
        "android_client_info": {
          "package_name": "com.vinstudio.recipehealthy"
        }
      },
      "oauth_client": [
        {
          "client_id": "352361035555-jq0e0ln7his5q2lu7tadmehak9e3g2kr.apps.googleusercontent.com",
          "client_type": 3
        }
      ],
      "api_key": [
        {
          "current_key": "AIzaSyBHcI1jVTXh86FGC-iU2YsZUcq6fmjsXFA"
        }
      ],
      "services": {
        "appinvite_service": {
          "other_platform_oauth_client": [
            {
              "client_id": "352361035555-r61ehnhuc11cvn6ta3105b88s6voibgv.apps.googleusercontent.com",
              "client_type": 3
            },
            {
              "client_id": "352361035555-go3l7bq7aiblchbq42k5rkihpj0nc4n7.apps.googleusercontent.com",
              "client_type": 2,
              "ios_info": {
                "bundle_id": "com.vinstudio.inlove"
              }
            }
          ]
        }
      }
    }
  ],
  "configuration_version": "1"
}